                                                                               
1) Partners         -> partners     [nolookup]                                  50+     (1) 
2) Fee Structure    -> partners     [partners]                                  250     (1)
3) Groups           -> groups       [partners]                                  110     (1)
4) Promo_Codes      -> groups       [groups]                                    150     (1)
5) Event            -> events       [groups]                                    800     (1)
6) Transactions     -> transactions [events , partners, groups]                 cca 350 (24)
7) Tickets          -> transactions [transactions , events]                     150     (24)
8) Ticket Types     -> events       [events]                                    1000    (24)
9) Customers        -> transactions [transactions , events]                     350     (24)
9) Customers_x      -> transactions [transactions, events, customers]           750     (24)

